.........
----------------------------------------------------------------------
Ran 9 tests in 0.001s

OK
Name             Stmts   Miss Branch BrPart  Cover   Missing
------------------------------------------------------------
Netflix.py          50      3      6      1    93%   26-29, 22->26
TestNetflix.py      41      0      0      0   100%
------------------------------------------------------------
TOTAL               91      3      6      1    96%
