.........
----------------------------------------------------------------------
Ran 9 tests in 0.007s

OK
Name             Stmts   Miss Branch BrPart  Cover   Missing
------------------------------------------------------------
Netflix.py          65      3     14      3    92%   23-24, 90, 22->23, 80->83, 89->90
TestNetflix.py      53      0      0      0   100%
------------------------------------------------------------
TOTAL              118      3     14      3    95%
